127.0.0.1 - - [07/Jan/2024:19:55:46 +0530] "GET / HTTP/1.1" 404 751
0:0:0:0:0:0:0:1 - - [07/Jan/2024:19:55:48 +0530] "GET /StudentWebApp/LoginForm.html HTTP/1.1" 304 -
0:0:0:0:0:0:0:1 - - [07/Jan/2024:19:55:48 +0530] "GET /favicon.ico HTTP/1.1" 404 762
0:0:0:0:0:0:0:1 - - [07/Jan/2024:19:55:59 +0530] "POST /StudentWebApp/LoginServlet HTTP/1.1" 500 8
0:0:0:0:0:0:0:1 - - [07/Jan/2024:19:56:16 +0530] "POST /StudentWebApp/LoginServlet HTTP/1.1" 200 202
0:0:0:0:0:0:0:1 - - [07/Jan/2024:19:56:25 +0530] "POST /StudentWebApp/LoginServlet HTTP/1.1" 500 8
127.0.0.1 - - [07/Jan/2024:20:12:19 +0530] "GET / HTTP/1.1" 404 751
0:0:0:0:0:0:0:1 - - [07/Jan/2024:20:12:20 +0530] "GET /StudentWebApp/WEB-INF/classes/com/dao/StudentDAO.java HTTP/1.1" 404 682
0:0:0:0:0:0:0:1 - - [07/Jan/2024:20:12:57 +0530] "GET /StudentWebApp/WEB-INF/classes/com/dao/StudentDAO.java HTTP/1.1" 404 682
127.0.0.1 - - [07/Jan/2024:20:19:08 +0530] "GET / HTTP/1.1" 404 751
0:0:0:0:0:0:0:1 - - [07/Jan/2024:20:19:16 +0530] "POST /StudentWebApp/LoginServlet HTTP/1.1" 500 8
0:0:0:0:0:0:0:1 - - [07/Jan/2024:20:19:24 +0530] "POST /StudentWebApp/LoginServlet HTTP/1.1" 500 8
0:0:0:0:0:0:0:1 - - [07/Jan/2024:20:19:33 +0530] "POST /StudentWebApp/LoginServlet HTTP/1.1" 200 202
0:0:0:0:0:0:0:1 - - [07/Jan/2024:20:19:56 +0530] "GET /StudentWebApp/Logout HTTP/1.1" 304 -
0:0:0:0:0:0:0:1 - - [07/Jan/2024:20:20:03 +0530] "POST /StudentWebApp/LoginServlet HTTP/1.1" 500 8
127.0.0.1 - - [07/Jan/2024:20:32:15 +0530] "GET / HTTP/1.1" 404 751
0:0:0:0:0:0:0:1 - - [07/Jan/2024:20:32:26 +0530] "POST /StudentWebApp/LoginServlet HTTP/1.1" 500 8
0:0:0:0:0:0:0:1 - - [07/Jan/2024:20:32:42 +0530] "POST /StudentWebApp/LoginServlet HTTP/1.1" 200 202
0:0:0:0:0:0:0:1 - - [07/Jan/2024:20:32:48 +0530] "POST /StudentWebApp/LoginServlet HTTP/1.1" 500 8
0:0:0:0:0:0:0:1 - - [07/Jan/2024:20:34:34 +0530] "POST /StudentWebApp/LoginServlet HTTP/1.1" 500 8
