127.0.0.1 - - [09/Jan/2024:20:57:35 +0530] "GET / HTTP/1.1" 404 751
0:0:0:0:0:0:0:1 - - [09/Jan/2024:20:57:36 +0530] "GET /StudentWebApp/LoginForm.html HTTP/1.1" 304 -
0:0:0:0:0:0:0:1 - - [09/Jan/2024:20:57:37 +0530] "GET /favicon.ico HTTP/1.1" 404 762
0:0:0:0:0:0:0:1 - - [09/Jan/2024:20:57:48 +0530] "POST /StudentWebApp/LoginServlet HTTP/1.1" 200 288
0:0:0:0:0:0:0:1 - - [09/Jan/2024:20:57:53 +0530] "GET /StudentWebApp/GetAllStus HTTP/1.1" 200 732
0:0:0:0:0:0:0:1 - - [09/Jan/2024:20:57:55 +0530] "GET /StudentWebApp/GetAllStus HTTP/1.1" 200 732
0:0:0:0:0:0:0:1 - - [09/Jan/2024:20:58:08 +0530] "POST /StudentWebApp/LoginServlet HTTP/1.1" 500 8
0:0:0:0:0:0:0:1 - - [09/Jan/2024:20:58:13 +0530] "POST /StudentWebApp/LoginServlet HTTP/1.1" 500 8
0:0:0:0:0:0:0:1 - - [09/Jan/2024:20:59:04 +0530] "GET /favicon.ico HTTP/1.1" 404 762
0:0:0:0:0:0:0:1 - - [09/Jan/2024:20:59:12 +0530] "POST /StudentWebApp/LoginServlet HTTP/1.1" 500 8
0:0:0:0:0:0:0:1 - - [09/Jan/2024:20:59:23 +0530] "GET /StudentWebApp/LoginForm.html HTTP/1.1" 304 -
0:0:0:0:0:0:0:1 - - [09/Jan/2024:20:59:25 +0530] "GET /StudentWebApp/LoginForm.html HTTP/1.1" 304 -
127.0.0.1 - - [09/Jan/2024:22:10:05 +0530] "GET / HTTP/1.1" 404 751
0:0:0:0:0:0:0:1 - - [09/Jan/2024:22:10:07 +0530] "GET /StudentWebApp/Login.html HTTP/1.1" 200 514
0:0:0:0:0:0:0:1 - - [09/Jan/2024:22:10:07 +0530] "GET /favicon.ico HTTP/1.1" 404 762
0:0:0:0:0:0:0:1 - - [09/Jan/2024:22:10:11 +0530] "GET /StudentWebApp/Login.html HTTP/1.1" 304 -
0:0:0:0:0:0:0:1 - - [09/Jan/2024:22:10:23 +0530] "POST /StudentWebApp/Login HTTP/1.1" 200 25
0:0:0:0:0:0:0:1 - - [09/Jan/2024:22:11:14 +0530] "POST /StudentWebApp/Login HTTP/1.1" 200 25
0:0:0:0:0:0:0:1 - - [09/Jan/2024:22:11:28 +0530] "POST /StudentWebApp/Login HTTP/1.1" 200 25
0:0:0:0:0:0:0:1 - - [09/Jan/2024:22:11:50 +0530] "GET /StudentWebApp/Login HTTP/1.1" 200 25
0:0:0:0:0:0:0:1 - - [09/Jan/2024:22:12:40 +0530] "GET /StudentWebApp/Login HTTP/1.1" 200 25
0:0:0:0:0:0:0:1 - - [09/Jan/2024:22:12:41 +0530] "GET /favicon.ico HTTP/1.1" 404 762
0:0:0:0:0:0:0:1 - - [09/Jan/2024:22:12:52 +0530] "GET /StudentWebApp/Login HTTP/1.1" 200 25
0:0:0:0:0:0:0:1 - - [09/Jan/2024:22:14:11 +0530] "GET /StudentWebApp/Register.html HTTP/1.1" 200 1074
0:0:0:0:0:0:0:1 - - [09/Jan/2024:22:14:30 +0530] "POST /StudentWebApp/Register HTTP/1.1" 200 -
0:0:0:0:0:0:0:1 - - [09/Jan/2024:22:14:35 +0530] "POST /StudentWebApp/Register HTTP/1.1" 200 -
0:0:0:0:0:0:0:1 - - [09/Jan/2024:22:14:50 +0530] "GET /StudentWebApp/Register HTTP/1.1" 200 -
0:0:0:0:0:0:0:1 - - [09/Jan/2024:22:14:54 +0530] "GET /StudentWebApp/Register HTTP/1.1" 200 -
0:0:0:0:0:0:0:1 - - [09/Jan/2024:22:17:50 +0530] "GET /StudentWebApp/Register.html HTTP/1.1" 304 -
0:0:0:0:0:0:0:1 - - [09/Jan/2024:22:17:55 +0530] "GET /StudentWebApp/Login.html HTTP/1.1" 304 -
0:0:0:0:0:0:0:1 - - [09/Jan/2024:22:18:15 +0530] "POST /StudentWebApp/Login HTTP/1.1" 200 25
0:0:0:0:0:0:0:1 - - [09/Jan/2024:22:18:36 +0530] "POST /StudentWebApp/Login HTTP/1.1" 200 25
0:0:0:0:0:0:0:1 - - [09/Jan/2024:22:22:03 +0530] "GET /StudentWebApp/Login.html HTTP/1.1" 304 -
0:0:0:0:0:0:0:1 - - [09/Jan/2024:22:22:04 +0530] "GET /favicon.ico HTTP/1.1" 404 762
0:0:0:0:0:0:0:1 - - [09/Jan/2024:22:22:37 +0530] "POST /StudentWebApp/Login HTTP/1.1" 200 25
0:0:0:0:0:0:0:1 - - [09/Jan/2024:22:23:30 +0530] "POST /StudentWebApp/Login HTTP/1.1" 200 25
0:0:0:0:0:0:0:1 - - [09/Jan/2024:22:27:27 +0530] "GET /StudentWebApp/Login.html HTTP/1.1" 304 -
0:0:0:0:0:0:0:1 - - [09/Jan/2024:22:27:27 +0530] "GET /favicon.ico HTTP/1.1" 404 762
0:0:0:0:0:0:0:1 - - [09/Jan/2024:22:27:35 +0530] "POST /StudentWebApp/Login HTTP/1.1" 200 25
127.0.0.1 - - [09/Jan/2024:22:29:27 +0530] "GET / HTTP/1.1" 404 751
0:0:0:0:0:0:0:1 - - [09/Jan/2024:22:29:28 +0530] "GET /StudentWebApp/Login.html HTTP/1.1" 200 514
0:0:0:0:0:0:0:1 - - [09/Jan/2024:22:29:29 +0530] "GET /favicon.ico HTTP/1.1" 404 762
0:0:0:0:0:0:0:1 - - [09/Jan/2024:22:29:37 +0530] "POST /StudentWebApp/Login HTTP/1.1" 200 299
0:0:0:0:0:0:0:1 - - [09/Jan/2024:22:29:42 +0530] "GET /StudentWebApp/StudentProfile HTTP/1.1" 200 578
0:0:0:0:0:0:0:1 - - [09/Jan/2024:22:29:45 +0530] "GET /StudentWebApp/StuHomePage HTTP/1.1" 200 299
0:0:0:0:0:0:0:1 - - [09/Jan/2024:22:30:01 +0530] "POST /StudentWebApp/Login HTTP/1.1" 200 362
0:0:0:0:0:0:0:1 - - [09/Jan/2024:22:30:05 +0530] "GET /StudentWebApp/GetAllStus HTTP/1.1" 200 816
0:0:0:0:0:0:0:1 - - [09/Jan/2024:22:30:07 +0530] "GET /StudentWebApp/GetStuById.html HTTP/1.1" 200 402
0:0:0:0:0:0:0:1 - - [09/Jan/2024:22:30:12 +0530] "POST /StudentWebApp/GetStuById HTTP/1.1" 200 608
0:0:0:0:0:0:0:1 - - [09/Jan/2024:22:30:14 +0530] "GET /StudentWebApp/AdminHomePage HTTP/1.1" 200 362
