INDEX VERSION 1.130+C:\FSD56\studentjdbc\AdvJava\WorkSpace3\.metadata\.plugins\org.eclipse.jdt.core
1946725198.index
2507423472.index
2066830214.index
2910701513.index
1961815414.index
1525255123.index
4070444656.index
2885606711.index
2995257708.index
2270097860.index
1018866394.index
2841847532.index
3348520720.index
674573568.index
1774135625.index
3644761064.index
3045370621.index
2745217321.index
895354549.index
2905173337.index
3600433371.index
672267040.index
103378668.index
3459041340.index
3620527341.index
411227453.index
4261816429.index
2992104159.index
2205283528.index
2413349752.index
55295305.index
2899695270.index
46343035.index
3040837599.index
3016090098.index
4259073463.index
4262125169.index
1027040333.index
91467338.index
2283722467.index
1956904976.index
1245259839.index
101156168.index
4135958314.index
4138326577.index
542153213.index
407247709.index
