INDEX VERSION 1.3+C:\FSD56\studentjdbc\AdvJava\WorkSpace3\.metadata\.plugins\org.eclipse.wst.jsdt.core\indexes
4237401062.index
3827986229.index
105874667.index
3625497465.index
2990821904.index
395845449.index
211159653.index
